Name,Color
Aaron Ecton,america
Aaron Fanning,green
Aaron Madriaga,red_to_yellow_to_green
Abdullah Faras,purple
Adam Leidigh,finland
Adela Greenbaum,cyan
AJ Renshaw,red bold
Albert Alvarado,red_to_white
Alberto Portillo,red
Alec Dorner,lightblue
Alessio Gheller,italy
Alexander Walters,gold
Alexis Sicherman,red bold
Alice Swift,rainbow
Allison Hind,red
Alywin Sensley,red
Amanda Kohatsu-Popoola,green
Amanda Wolff,green_to_gray
Amber Hansen,neongreen
Andre Miranda,orange_to_green
Andrew Chee,purple bold
Andrew Herbert,purple
Andrew Williams #3,royalblue bold
Armando Carreon,red
Arran Sullivan,red bold
Artie Miller,royalblue bold
Artur Mamedyarov,red bold
Ashleigh Campbell,lightblue
Ashley Contorno,purple_to_teal
Ashley Wilson #1,redgold_anim bold
Barbara Beaudin,purple
Blake Parado,green
Bobby Morgan #2,red
Bob McClure,red
Bob Merkh,america
Boris Lerner,lightblue
Brad Lentini,orange bold
Bradley Besson,forestgreen
Brady Stewart #1,america
Brandon Combess,royalblue
Brian Goldstein #1,rainbow
Brianne Barry,purple_to_green
Bridget Morgan,lightblue
Brittainy Chown,purple_to_teal
Brody Laybolt,royalblue
Bryan Hartsel,yellow
Carina Davis,pink
Carl Stevens,yellow stencil small-caps
Carlos Cristan,carlos italic
Carter Claflin,lightblue_to_white
Cat Hawkins,neongreen_to_white
Ceceilia Allwein,finland bold
Celia Gomez,lightblue
Chad Penson,red_to_white
Charles Binkley,small-caps america
Charlie Cheryl Ritchie,yellow bold
Charlie Hooson-Sykes,rainbow
Chloe Lansing,blue_to_lightblue
Chris Lentini #1,red_to_blue bold papyrus
Chris Lindsay #1,royalblue
Chris Meadows,red
Chrissy Castellano,lightpink
Christie Hoffmeyer,red_to_blue bold papyrus
Christopher Roberts,lightblue_to_purple
Christopher Young #1,bold red
Christy James-Moser,lightblue
Ciarra Hutton,turquoise
Cody Mohlencamp,america bold
Cynthia Browning,limegreen
Dan Green,green
Daniel Morjal,chicago_bears
Dante Searcy,yellow
Daphne Zhang,red
Darcy Morrissey,rosered
Darien Washington,purple
Dave Baker,rainbow
David Balsdon #1,purple
David Jasiulewicz,royalblue
David Osborn #1,gold
David O'Sullivan #1,rainbow
David Patterson #1,america bold
Dean Wyatt,lightblue
Derek Forlini,red
Diane Romano-Woodward,hotpink
Dominique Fisher #1,red
Donny Tudahl,red
Dustin Sixkiller,america
Dylan Mayer,finland
Ed Anton,green
Ellen Seidel,lightblue
Emily Blastock,pink_to_yellow_to_purple
Eric Sirois,america
Erika Hipwell,red
Erika Stevens,red
Esther Lee,lightblue
Eugenia Tashquinth,red bold algerian
Ferdinand Luis,lightblue comicsans
Francesca Nicoletti,pink_to_lightblue
Gabriel Salvatierra,green
Garrett Fear,purple bold
Gemma Lucas,england
George LeBlanc,darkgreen
Georgia Carter,orange_to_pink_to_orange
Gerren Short,blue_to_yellow
Glenn Kirkpatrick,mike_overkamp
Greg Nuckols,helvetica
Greg Simmons #1,royalblue
Hailie Slack,red_to_yellow
Halldór Jens Vilhjálmsson,small-caps iceland
Hannah Stephenson,red_to_white_to_red
Hannah Webb-Cameron,green
Harrison Stickelman,yellow
Heather Connor,watermelonpink
Isabella Martin,rainbow
Ivy Knight,yellow
Jacek Toczydlowski,blue_to_lightblue
Jack Crouse,royalblue bold
Jacob Winstead #1,blue_to_gold
Jake Aguilar,green
James Range,red
James Rowe,red_to_white
James Shannon,royalblue bold
James Skinner,lightblue
James Strickland #1,yellow
James Wakefield,strong_geelong_orange
Jamie Popp,small-caps red
Jan Hendrik Becker,red_to_yellow
Jason Legrand,neongreen
Jacqueline Malayter,lavender bold comicsans
Jawon Garrison,red
Jazmin Reyes,lightpink_to_darkpink
Jeana Jenkins,red_to_orange
Jeanne Murdock,pink_to_purple_to_blue
Jeanie Shellman,purple
Jeff Justo,bold
Jen Andrew,red bold
Jenn Rotsinger,rainbow
Jenna Hoffman #1,lightpink
Jennessa Labbate,blue_to_green
Jennifer Luther-Thomas,watermelonpink
Jeremy Willis #1,red
Jeris Hall,royalblue bold comicsans
Jesica Swisher,red_to_white
Jesse Carreon,purple
Jesse Lanuevo,olivegreen
Jessica Durden,royalblue_to_lightblue
Jessica Hause,purple_to_green
Jessica Pippen,red
Jessica Rogers,green_to_white
Jesus Fragoso,deadlift_purple
Jetter Lewis,jetter_lewis
Jimmy Kolb,limegreen bold
Joe Franklin,red_to_blue bold papyrus
Joel Ofori,blue_to_white
Joe Sullivan,lightblue
John Davis #4,royalblue
John LaFlamme,bold
John Melone,lightblue
John Reynolds,purple
Jonathon Farill,america
Joseph Borenstein,blue_to_purple_to_red
Joseph Park,rainbow
Josh Day #1,royalblue segoiui
Josh Enmark,small-caps neongreen
Josh Sutelman,all_red_top_down
Josh Walker #1,red
Jo Whiteley,purple
Johan Frisk,johan_frisk fire_animation
John Lucas #1,limegreen
Jordan Fender,america
Jordan Harris #1,america
Jordan Puchalla,red_to_white
Jordon Rothrock,blue_to_orange bold
Julia Tomascheski,yellow bold
Julius Erwin,lightblue
Justin Jackson #1,lightblue algerian
Kai Ma,rainbow
Kalle Räsänen,finland
Karen Barry,green bold
Karen Jiritano,lightblue
Kate Clarke,red small-caps bold
Kathryn Mohide,neongreen
Kathy Czukor,hotpink
Katie DeMartino,rainbow
K'Aunica Byrd,red_to_white_to_red
Kayden Weller,red
Kayla Anderson #1,purple_to_silver
Kei Kawamata,rainbow
Keith Stich,yellow bold
Kellie Montalvan,lightblue
Kellin Lee,limegreen
Kelly Gibson Bateman,america
Kelly Grosos,yellow bold
Kerrie Montalvan,lightblue
Kevin Serrano #1,bold red
Kimberly Mossburg,aqua_to_pink
Kirstie Armstead,pink_to_purple
Konnor Hayes,america
Kris Lewis #1,rainbow
Kristen Bellon,purple
Kristen Robbins #1,lightblue
Kristy Hawkins,green
Krzysztof Tur,purple purple_fire_animation bold
Kylee Craig,lightpink
Kyle McKee,yellow
Kyle Phipps,solidyellow
Kyle Stewart,green
Lanisha Adams,rainbow
Lary McEwen,yellow
Laura Kelly,laura_kelly
Lee Male,purple_fire_animation bold
Leigh Estrada,turquoise
Leila Thexton,small-caps bold pink_to_purple_to_blue
Leonetta Richardson,yellow
Linda Arvey,lightpink purple_fire_animation bold
Lisa Tai,lightpink
Lucas Humble,green
Lucinda Lorne,red bold comicsans
Luke Graham,ireland
Lynch Beachboard,america
Lynette Brown,orange
Madison Garcia #1,america
Mayed Alredha,emirates bold
Mariana Moreno-Cederberg,rainbow
Marie Hauschild,yellow_to_orange bold
Marina Castillo #2,rainbow
Marguerite Jones,purple
Mary Allor,royalblue bold
Matt Domney,mattdomney
Matt Pearce,small-caps letter-spacing-2 helvetica matt_gradient
Matthew Gray #1,pink_to_white_to_pink
Matthew Provin,small-caps lightazure
Maureen Clary,yellow bold tahoma
Mauricio Standley,red bold
Maxavier Jean-Philippe,redgold_anim bold
Meg Robertson,red
Michael Flynn #1,emeraldgreen
Michael Gentile,royalblue
Michael Petyak,lightblue
Michael Vessia,flash3
Michelle Leu,salmonpink
Michelle Rennick,red bold
Michelle Sothen,lightpink
Mike Overkamp,mike_overkamp
Mike Picozzi,red bold
Mike Schollbach,yellow
Nathan Kim,red_to_white
Nick Breen,red
Nikki Merson,pink_to_white
Noémie Allabert,france
Nolan Thomason,red_to_blue bold papyrus
Ogden J Myklebust III,chartreuse_yellow
Patria Jimenez,millennial_pink_color_palette
Patrick Jeffries,america
Paul Jackson #1,royalblue
Pauline Dolan,neongreen
Peter Pantazopoulos,rainbow
Peter Spence,peter_spence
Phillip Lake,green
Ranson Lee,royalblue
Rachel Foster,blue_to_lightblue bold
Ray Jiminez,royalblue
Rebecca Bachman,limegreen_to_gray
Reyhan Roybal,rainbow
Rich Sadiv,red
Richard Fontenot,red bold
Rick Simmons,lightblue
Riley Presnell,purple
Rita McBain,red bold
Robert Knutsson,sweden bold
Robert Lane,green
Robert Simmons #1,rainbow
Rob Hall,rob_hall
Rob Lineker,neongreen
Robyn Turnbull,rainbow
Roman Mustaccio,neongreen
Rozana Abdul Razak,pink
Ryan Jones #1,gold bold
Ryan Mathias,royalblue bold
Ryan O'Neill #1,rainbow bold
Ryan Rubio,orange
Sally French,pink_to_orange
Sally Perry,lightblue
Samantha Shinavier,pink_to_purple_to_blue
Samuel Vaia,red bold
Sarah Klein #1,opl_sbd
Sarah Wellberg,green
Sarah Wheal,lightblue
Sara Schiff,purple_to_green
Scott Neary,turquoise bold
Sean Breard,blue_to_lightblue
Sean Dewey,red_to_blue bold
Sean Stangl,blue_to_lightblue
Sebastiaan Slotema,royalblue
Shadi Zahed,green
Shaun Davis #1,royalblue
Shawn Fante,red bold
Shelby Halligan,limegreen_to_green
Sherri Peppo,royalblue bold
Simon Daniel Oswald,cedar_brown
Spencer Key,orange
Stefanie Cohen,bold red
Steve Adams,blue_to_gunmetal
Steve Denison,lightblue
Susan Chambers,rainbow
Susan Salazar,lightblue
Suzanne Davis,benchteal bold
Tadej Kovačič,red bold
Tamara Guadagnoli,tamara
Tara Webber,green
Taylor Haney,red_to_purple
Tenaya Tuteur,turquoise_to_magenta scroll_gradient
Terri Ashley,purple
Tiffany Cheng,america bold fairwater
Tim Arnold #1,waterblue
Tim Daniel Konertz,dots_red
Tim Lease,america
Timo Jakobi,yellow bold
Tirsa St Fort,tirsa_st_fort infinite_loop
TJ Dunsmoor,emeraldgreen
Thomas Cencich,royalblue bold
Tom Kallas,red
Tommy O'Connor,ireland
Tracey Berg-Fulton,hotpink
Travis P. Rogers,gold
Treena Grevatt,purple_to_hotpink
Trevor Thompson,bold
Trystan Oakley,glow3
Tu Le #1,blue_to_yellow
Tyler Cummings,blue_to_white
Tyson Andrews,neongreen
Valerie Oliveira,tiger bold
Vanessa Ferla,teal_to_white
Vanessa Torres,pink_to_lightblue
Veronica Williams,purple
Véronique Fradette,canada
Vincent Raia,red
Wendy McGirr,neongreen
Wilbert Rogers,red bold small-caps
William E Duncan,gold
William Hobbs #1,blue_to_lightblue
Yousef Afaneh,palestine bold
Yu Gui,red_to_yellow_to_red
Zachary Langdon,royalblue
Zachary Lockhart,red
Zachary Nathaniel Hall,royalblue
Zachary Voase,rainbow small-caps
Zain Ahmed,lightblue
Zen McCollum,turquoise_to_magenta scroll_gradient
Zsuzsanna Tóth,hotpink bold papyrus
